{
"Facebook": [
        "https://www.facebook.com", 
        "https://facebook.doesnotexist.com",
        "https://www.facebook.com/login",
        "https://www.facebook.co.uk/404",
        "https://www.facebook.com:90"
        ],
"Google": [
        "https://www.google.com",
        "https://support.google.com",
        "https://google.com/404"
        ],
"Localhost":[
        "http://localhost:8080",
        "http://localhost:5000"
        ],
"Twitter":[
        "https://twitter.com/",
        "https://twitter.com/sshamsudheen"
]
}